{
  "ViewId": "fb4049c6-a4f2-4eef-8c4d-9784695b9b38",
  "class": "is-link",
  "deletedAt": null,
  "id": "42d66d25-9a0f-427d-841a-c72bec0fca94",
  "labelKey": "edit",
  "order": "1",
  "params": null,
  "position": null,
  "slug": "/menu_section_form/:id:",
  "type": "navigation"
}