{
  "ChildViewId": null,
  "ModelFieldId": "6230e012-0dae-4af1-a076-f1f54837dac7",
  "ViewId": "82dd0852-c5f6-4276-ac3a-e7d69f141cc1",
  "breakAfter": null,
  "canOrderBy": null,
  "canUpdate": null,
  "class": "is-6",
  "deletedAt": null,
  "descriptionColumn": null,
  "filters": null,
  "findType": null,
  "format": null,
  "helperTextLabelKey": null,
  "id": "b25dce15-0c56-4783-bb5b-4282ec66bd37",
  "include": null,
  "labelKey": "labelKey",
  "mask": null,
  "order": "1",
  "placeholder": null,
  "required": null,
  "valueColumn": null
}