{
  "ChildViewId": null,
  "ModelFieldId": "943e890d-9269-4b92-ae23-a2265da5bbdf",
  "ViewId": "91c6da08-a1cc-4478-be07-b78a3ab90b65",
  "breakAfter": false,
  "canOrderBy": false,
  "canUpdate": false,
  "class": "is-2",
  "deletedAt": null,
  "descriptionColumn": "reference",
  "filters": null,
  "findType": null,
  "format": null,
  "helperTextLabelKey": "",
  "id": "53504755-a36d-4d2d-a360-76d94cdce4ad",
  "include": null,
  "labelKey": "RoleId",
  "mask": null,
  "order": "0",
  "placeholder": null,
  "required": false,
  "valueColumn": null
}