{
  "ModelId": "9c16a857-9808-4de0-9362-48b29f9e5f79",
  "TargetModelFieldId": null,
  "default": null,
  "deletedAt": null,
  "id": "0708d478-743d-41e2-adf0-5261040aac37",
  "length": 255,
  "modelFieldType": "DataTypes.STRING",
  "name": "descriptionColumn",
  "selectOptions": null,
  "targetModel": null,
  "targetModelAlias": null,
  "type": "string"
}