{
  "ModelId": "9c16a857-9808-4de0-9362-48b29f9e5f79",
  "TargetModelFieldId": null,
  "default": null,
  "deletedAt": null,
  "id": "0af22933-0c86-466c-a366-cb1971921974",
  "length": null,
  "modelFieldType": "DataTypes.JSON",
  "name": "filters",
  "selectOptions": null,
  "targetModel": null,
  "targetModelAlias": null,
  "type": "json"
}