{
  "ModelId": "9c16a857-9808-4de0-9362-48b29f9e5f79",
  "TargetModelFieldId": null,
  "default": null,
  "deletedAt": null,
  "id": "52ed187d-a25e-45e6-8cb3-2304d7521e78",
  "length": null,
  "modelFieldType": "DataTypes.BOOLEAN",
  "name": "required",
  "selectOptions": null,
  "targetModel": null,
  "targetModelAlias": null,
  "type": "boolean"
}