{
  "ModelId": "9c16a857-9808-4de0-9362-48b29f9e5f79",
  "TargetModelFieldId": null,
  "default": null,
  "deletedAt": null,
  "id": "5a7b675e-f37f-4e1d-ba21-b93da54bee2b",
  "length": null,
  "modelFieldType": "DataTypes.STRING",
  "name": "order",
  "selectOptions": null,
  "targetModel": null,
  "targetModelAlias": null,
  "type": "string"
}