{
  "ModelId": "9c16a857-9808-4de0-9362-48b29f9e5f79",
  "TargetModelFieldId": null,
  "default": null,
  "deletedAt": null,
  "id": "b2852d05-0b22-4b3c-97ab-93c1f1f21c69",
  "length": null,
  "modelFieldType": "DataTypes.BOOLEAN",
  "name": "canUpdate",
  "selectOptions": null,
  "targetModel": null,
  "targetModelAlias": null,
  "type": "boolean"
}