{
  "ModelId": "a1a83748-1c06-4a99-ba70-31c5eaca9013",
  "TargetModelFieldId": null,
  "default": null,
  "deletedAt": null,
  "id": "8084095f-80a5-407e-9915-fc657981e8b2",
  "length": null,
  "modelFieldType": "DataTypes.DATE",
  "name": "createdAt",
  "selectOptions": null,
  "targetModel": null,
  "targetModelAlias": null,
  "type": "datetime"
}