{
  "ViewId": "75123032-b4dc-44f9-b57f-05142e7290fb",
  "class": "is-link",
  "deletedAt": null,
  "id": "d35189bf-1a89-44b7-98b1-669b616cb5e3",
  "labelKey": "edit",
  "order": "1",
  "params": null,
  "position": null,
  "slug": "/model_permission_form/:id:",
  "type": "navigation"
}