{
  "ChildViewId": null,
  "ModelFieldId": "3f464e67-978c-4b28-a318-ee62dc0adf29",
  "ViewId": "033d3906-41de-4b8c-870b-2a4f3ddf8a9b",
  "breakAfter": false,
  "canOrderBy": false,
  "canUpdate": false,
  "class": "is-2",
  "deletedAt": null,
  "descriptionColumn": null,
  "filters": null,
  "findType": null,
  "format": null,
  "helperTextLabelKey": "",
  "id": "073d0d6f-2f62-4136-86a1-fc38fc443f17",
  "include": null,
  "labelKey": "updatedAt",
  "mask": null,
  "order": "2",
  "placeholder": null,
  "required": false,
  "valueColumn": null
}