{
  "ChildViewId": null,
  "ModelFieldId": "54b2254e-fff9-4ec4-ad1a-487d5f0df16a",
  "ViewId": "fb4049c6-a4f2-4eef-8c4d-9784695b9b38",
  "breakAfter": null,
  "canOrderBy": null,
  "canUpdate": false,
  "class": "is-2",
  "deletedAt": null,
  "descriptionColumn": null,
  "filters": null,
  "findType": null,
  "format": null,
  "helperTextLabelKey": null,
  "id": "199efebc-bf43-4a9d-92e0-f4ef078a0e84",
  "include": null,
  "labelKey": "createdAt",
  "mask": null,
  "order": "1",
  "placeholder": null,
  "required": null,
  "valueColumn": null
}