{
  "ViewId": "62590233-9f6e-4e61-8ead-56b01f6f095f",
  "class": "has-text-danger",
  "deletedAt": null,
  "id": "3dcdac2d-ab52-46c9-bd8f-3b970d521901",
  "labelKey": "remove",
  "order": "2",
  "params": {
    "id": ":id:"
  },
  "position": null,
  "slug": null,
  "type": "delete"
}