{
  "ModelId": "5a7fa022-b6ec-461a-a08e-7aa3a9f57cae",
  "TargetModelFieldId": null,
  "default": null,
  "deletedAt": null,
  "id": "04a28847-4452-4f75-b24e-05998f3327d1",
  "length": null,
  "modelFieldType": null,
  "name": "OrganizationId",
  "selectOptions": null,
  "targetModel": "Organization",
  "targetModelAlias": "Organization",
  "type": "belongsTo"
}