{
  "ModelId": "790a8062-854b-42a2-b13f-7559a5c6b9b0",
  "TargetModelFieldId": null,
  "default": null,
  "deletedAt": null,
  "id": "3984b796-bbc9-4fe2-9ab9-845e428c6554",
  "length": null,
  "modelFieldType": "DataTypes.DATE",
  "name": "updatedAt",
  "selectOptions": null,
  "targetModel": null,
  "targetModelAlias": null,
  "type": "datetime"
}