{
  "ModelId": "790a8062-854b-42a2-b13f-7559a5c6b9b0",
  "TargetModelFieldId": null,
  "default": null,
  "deletedAt": null,
  "id": "943e890d-9269-4b92-ae23-a2265da5bbdf",
  "length": null,
  "modelFieldType": null,
  "name": "RoleId",
  "selectOptions": null,
  "targetModel": "Role",
  "targetModelAlias": "Role",
  "type": "belongsTo"
}