{
  "ModelId": "405cf410-c096-4b15-b7a8-97a0ed9bae72",
  "TargetModelFieldId": null,
  "default": null,
  "deletedAt": null,
  "id": "ff509dfe-7498-4dff-a817-d7b6f0cca79f",
  "length": null,
  "modelFieldType": null,
  "name": "ViewId",
  "selectOptions": null,
  "targetModel": "View",
  "targetModelAlias": "View",
  "type": "belongsTo"
}