{
  "ChildViewId": null,
  "ModelFieldId": "6371c13c-a7a5-4ac7-81f3-ebfe8dec6b20",
  "ViewId": "04368b09-9253-4cb0-a618-2003a26ae7ad",
  "breakAfter": false,
  "canOrderBy": false,
  "canUpdate": true,
  "class": "is-6",
  "deletedAt": null,
  "descriptionColumn": null,
  "filters": null,
  "findType": null,
  "format": null,
  "helperTextLabelKey": null,
  "id": "1e74c63c-fbfe-4f3c-a11e-c79bf6354f9a",
  "include": null,
  "labelKey": "RoleId",
  "mask": null,
  "order": "999",
  "placeholder": null,
  "required": false,
  "valueColumn": null
}