{
  "ChildViewId": null,
  "ModelFieldId": "6371c13c-a7a5-4ac7-81f3-ebfe8dec6b20",
  "ViewId": "000537b4-bdb9-4e74-ad14-c7d00bf2e375",
  "breakAfter": false,
  "canOrderBy": false,
  "canUpdate": true,
  "class": "is-6",
  "deletedAt": null,
  "descriptionColumn": null,
  "filters": null,
  "findType": null,
  "format": null,
  "helperTextLabelKey": "",
  "id": "361b10e1-d23e-4647-a36e-33d3d8ea4af2",
  "include": null,
  "labelKey": "RoleId",
  "mask": null,
  "order": "999",
  "placeholder": null,
  "required": false,
  "valueColumn": null
}