{
  "ChildViewId": null,
  "ModelFieldId": "64be9aa1-1c31-4aa6-8e3a-8d6ef5564f15",
  "ViewId": "7bdbc5e5-4f29-4f0a-879e-bef0cbe96616",
  "breakAfter": false,
  "canOrderBy": false,
  "canUpdate": true,
  "class": "is-6",
  "deletedAt": null,
  "descriptionColumn": null,
  "filters": null,
  "findType": null,
  "format": null,
  "helperTextLabelKey": null,
  "id": "535b983b-cbf9-4dda-aa68-86525b878017",
  "include": null,
  "labelKey": "ModelFieldId",
  "mask": null,
  "order": "999",
  "placeholder": null,
  "required": false,
  "valueColumn": null
}