{
  "ChildViewId": null,
  "ModelFieldId": "325b8785-e8f0-4c9c-98ee-ed4483ca9cba",
  "ViewId": "000537b4-bdb9-4e74-ad14-c7d00bf2e375",
  "breakAfter": false,
  "canOrderBy": false,
  "canUpdate": true,
  "class": "is-6",
  "deletedAt": null,
  "descriptionColumn": null,
  "filters": null,
  "findType": null,
  "format": null,
  "helperTextLabelKey": "",
  "id": "8c0511bd-1e82-4b26-abb2-91744516e0fc",
  "include": null,
  "labelKey": "ModelId",
  "mask": null,
  "order": "999",
  "placeholder": null,
  "required": false,
  "valueColumn": null
}