{
  "ChildViewId": null,
  "ModelFieldId": "325b8785-e8f0-4c9c-98ee-ed4483ca9cba",
  "ViewId": "04368b09-9253-4cb0-a618-2003a26ae7ad",
  "breakAfter": false,
  "canOrderBy": false,
  "canUpdate": true,
  "class": "is-6",
  "deletedAt": null,
  "descriptionColumn": null,
  "filters": null,
  "findType": null,
  "format": null,
  "helperTextLabelKey": null,
  "id": "f79d2566-7fdf-49b1-8222-c1f9199c9d74",
  "include": null,
  "labelKey": "ModelId",
  "mask": null,
  "order": "999",
  "placeholder": null,
  "required": false,
  "valueColumn": null
}