{
  "MenuSectionId": "2f9020dc-ee9f-446e-931a-b6217ee41c8b",
  "ModelId": "790a8062-854b-42a2-b13f-7559a5c6b9b0",
  "class": null,
  "deletedAt": "2021-11-23T20:51:29.582Z",
  "filters": null,
  "id": "6741b3ad-2837-40eb-94f5-d7026a9ed7c9",
  "include": null,
  "key": "form-model_permissions",
  "labelKey": "ModelPermission",
  "showOnMenu": false,
  "slug": "/model_permission_form",
  "type": "FormView"
}