{
  "MenuSectionId": "8dcd077b-b723-4b33-8c80-48702c9afdf4",
  "ModelId": "790a8062-854b-42a2-b13f-7559a5c6b9b0",
  "class": null,
  "deletedAt": null,
  "filters": null,
  "id": "75123032-b4dc-44f9-b57f-05142e7290fb",
  "include": [
    "Model",
    "Role"
  ],
  "key": "list-model_permission",
  "labelKey": "ModelPermission",
  "showOnMenu": false,
  "slug": "/model_permission_old",
  "type": "ListView"
}