{
  "ViewId": "033d3906-41de-4b8c-870b-2a4f3ddf8a9b",
  "class": null,
  "deletedAt": null,
  "id": "0a05b01f-31ea-48ae-a000-80f783487d2a",
  "labelKey": "remove",
  "order": "2",
  "params": {
    "id": ":id"
  },
  "position": "top right",
  "slug": null,
  "type": "delete"
}