{
  "ModelId": "7b6a5206-e3a7-4f9f-a2bc-462253cf3b8a",
  "TargetModelFieldId": "febcd359-0cf7-40f9-80d6-fcc4cb47bd11",
  "default": null,
  "deletedAt": null,
  "id": "88a16c50-1e72-4392-bae8-ab996a6c6e04",
  "length": null,
  "modelFieldType": null,
  "name": "ViewRowActions",
  "selectOptions": null,
  "targetModel": "ViewRowAction",
  "targetModelAlias": "ViewRowActions",
  "type": "hasMany"
}