{
  "ModelId": "7b6a5206-e3a7-4f9f-a2bc-462253cf3b8a",
  "TargetModelFieldId": null,
  "default": null,
  "deletedAt": null,
  "id": "a55a861a-01ca-4f68-88f9-25966d8754e6",
  "length": null,
  "modelFieldType": null,
  "name": "MenuSectionId",
  "selectOptions": null,
  "targetModel": "MenuSection",
  "targetModelAlias": "MenuSection",
  "type": "belongsTo"
}