{
  "ChildViewId": null,
  "ModelFieldId": "05a56209-a77a-47d4-a60c-4207c45fbee5",
  "ViewId": "0527e63a-6d50-4fe1-b978-e11c310d0ab4",
  "breakAfter": false,
  "canOrderBy": false,
  "canUpdate": true,
  "class": "is-6",
  "deletedAt": null,
  "descriptionColumn": null,
  "filters": null,
  "findType": null,
  "format": null,
  "helperTextLabelKey": null,
  "id": "3cf12b78-81a2-429d-a155-9998154074f3",
  "include": null,
  "labelKey": "TargetModelFieldId",
  "mask": null,
  "order": "999",
  "placeholder": null,
  "required": false,
  "valueColumn": null
}