{
  "ChildViewId": null,
  "ModelFieldId": "9752e8de-70bb-4ae9-ba9b-ad77c81bb82b",
  "ViewId": "9cb74854-e757-4d4f-8925-9908db897ba3",
  "breakAfter": false,
  "canOrderBy": false,
  "canUpdate": false,
  "class": "is-6",
  "deletedAt": null,
  "descriptionColumn": null,
  "filters": null,
  "findType": null,
  "format": null,
  "helperTextLabelKey": "help_modelField_default",
  "id": "860a8897-3bbf-440d-a84b-63b5d7971765",
  "include": null,
  "labelKey": "default",
  "mask": null,
  "order": "7",
  "placeholder": null,
  "required": false,
  "valueColumn": null
}