{
  "ModelId": "5abcd236-670e-436f-81c7-3c3e44a5e270",
  "TargetModelFieldId": "943e890d-9269-4b92-ae23-a2265da5bbdf",
  "default": null,
  "deletedAt": null,
  "id": "c75ff9ee-1e6c-4b16-bf5d-dc4b883c6f13",
  "length": null,
  "modelFieldType": null,
  "name": "ModelPermissions",
  "selectOptions": null,
  "targetModel": "ModelPermission",
  "targetModelAlias": "ModelPermissions",
  "type": "hasMany"
}