{
  "ModelId": "5abcd236-670e-436f-81c7-3c3e44a5e270",
  "TargetModelFieldId": "6371c13c-a7a5-4ac7-81f3-ebfe8dec6b20",
  "default": null,
  "deletedAt": null,
  "id": "d5ee19be-9174-4b0b-bb24-01d3f00f3f98",
  "length": null,
  "modelFieldType": null,
  "name": "ModelFieldPermissions",
  "selectOptions": null,
  "targetModel": "ModelFieldPermission",
  "targetModelAlias": "ModelFieldPermissions",
  "type": "hasMany"
}