{
  "ModelId": "5abcd236-670e-436f-81c7-3c3e44a5e270",
  "TargetModelFieldId": "b8dd9cbb-1604-43c8-a747-a4f74c3b6900",
  "default": null,
  "deletedAt": null,
  "id": "e5b92f20-8fd0-4c73-96b3-df1dcdb63a8b",
  "length": null,
  "modelFieldType": null,
  "name": "ViewPermissions",
  "selectOptions": null,
  "targetModel": "ViewPermission",
  "targetModelAlias": "ViewPermissions",
  "type": "hasMany"
}