{
  "ViewId": "000537b4-bdb9-4e74-ad14-c7d00bf2e375",
  "class": "is-link",
  "deletedAt": null,
  "id": "002dc017-8803-4100-9c01-bde69776371a",
  "labelKey": "edit",
  "order": "1",
  "params": null,
  "position": null,
  "slug": "/model_field_permission_form/:id:",
  "type": "navigation"
}