{
  "ChildViewId": null,
  "ModelFieldId": "73ef7fa4-ab84-470d-956a-47f722bb9f65",
  "ViewId": "2ff429dc-71da-4e10-86ca-04069c1386cb",
  "breakAfter": false,
  "canOrderBy": false,
  "canUpdate": true,
  "class": "is-6",
  "deletedAt": null,
  "descriptionColumn": null,
  "filters": null,
  "findType": null,
  "format": null,
  "helperTextLabelKey": null,
  "id": "1e175443-2e79-49ea-b1f5-0faad25431db",
  "include": null,
  "labelKey": "TargetUserId",
  "mask": null,
  "order": "999",
  "placeholder": null,
  "required": false,
  "valueColumn": null
}