{
  "ChildViewId": null,
  "ModelFieldId": "a0dcce78-f7f2-49e5-a89a-67c793aca667",
  "ViewId": "c11f6c46-5ddc-4715-a3b6-710e40227977",
  "breakAfter": false,
  "canOrderBy": false,
  "canUpdate": true,
  "class": "is-6",
  "deletedAt": null,
  "descriptionColumn": null,
  "filters": null,
  "findType": null,
  "format": null,
  "helperTextLabelKey": null,
  "id": "341c4be4-cc49-4e46-a859-f8709151e8f6",
  "include": null,
  "labelKey": "startDate",
  "mask": null,
  "order": "999",
  "placeholder": null,
  "required": false,
  "valueColumn": null
}