{
  "ViewId": "637e72f8-9426-4796-bfa1-b864faec1aed",
  "class": null,
  "deletedAt": null,
  "id": "44b5330a-706a-4f8e-a799-3951a6e41c2c",
  "labelKey": "back",
  "order": "1",
  "params": null,
  "position": "top left",
  "slug": "/view",
  "type": "navigation"
}