{
  "ViewId": "1bc387fc-8a19-456b-8513-929ae82a37b0",
  "class": "is-link",
  "deletedAt": null,
  "id": "f76435e9-2716-4d3c-a227-96acf69a1bc6",
  "labelKey": "create",
  "order": "1",
  "params": null,
  "position": "top right",
  "slug": "/model_validation_form",
  "type": "navigation"
}