{
  "MenuSectionId": "8dcd077b-b723-4b33-8c80-48702c9afdf4",
  "ModelId": "29de1456-e5c8-4086-b05e-68e581fe3734",
  "class": null,
  "deletedAt": null,
  "filters": null,
  "id": "28e36655-1225-45dd-8060-4a4f455a6fb4",
  "include": [
    "ModelFields",
    "ModelValidations"
  ],
  "key": "form-models",
  "labelKey": "models",
  "showOnMenu": false,
  "slug": "/model_form",
  "type": "FormView"
}