{
  "ModelId": "805d3256-cfbc-4df2-be79-1177e6eabeb1",
  "TargetModelFieldId": null,
  "default": null,
  "deletedAt": null,
  "id": "8b5096b8-cb7a-40b8-b12e-993b60326e27",
  "length": null,
  "modelFieldType": "DataTypes.DATE",
  "name": "deletedAt",
  "selectOptions": null,
  "targetModel": null,
  "targetModelAlias": null,
  "type": "datetime"
}