{
  "ModelId": "805d3256-cfbc-4df2-be79-1177e6eabeb1",
  "TargetModelFieldId": null,
  "default": null,
  "deletedAt": null,
  "id": "c5edc521-6a22-4c6d-95b9-d598580dc2ab",
  "length": null,
  "modelFieldType": null,
  "name": "CreatedByUserId",
  "selectOptions": null,
  "targetModel": "User",
  "targetModelAlias": "CreatedByUser",
  "type": "belongsTo"
}