{
  "ViewId": "e7565785-4b86-4e3c-8bc2-6a628dabbdb3",
  "class": "is-link",
  "deletedAt": null,
  "id": "04adebae-ff93-4864-b7a1-c4ba8529428e",
  "labelKey": "edit",
  "order": "1",
  "params": null,
  "position": null,
  "slug": "/role_form/:id:",
  "type": "navigation"
}