{
  "ViewId": "d7f2ee21-1673-43ac-b3b8-de0d51aecaff",
  "class": null,
  "deletedAt": null,
  "id": "b761aba1-45a0-4298-ac86-9e0f5be44f36",
  "labelKey": "edit",
  "order": "1",
  "params": null,
  "position": "top right",
  "slug": "/role_form/:id:",
  "type": "navigation"
}