{
  "ChildViewId": null,
  "ModelFieldId": "aa5c8631-ef6c-492c-a2be-4310c720c019",
  "ViewId": "809ccac3-9af6-48ce-a4e7-81cdf410a1e9",
  "breakAfter": null,
  "canOrderBy": null,
  "canUpdate": null,
  "class": "is-6",
  "deletedAt": null,
  "descriptionColumn": null,
  "filters": null,
  "findType": null,
  "format": null,
  "helperTextLabelKey": null,
  "id": "625b28fb-e478-41d6-b735-8534c89ca365",
  "include": null,
  "labelKey": "order",
  "mask": null,
  "order": "5",
  "placeholder": null,
  "required": null,
  "valueColumn": null
}