{
  "ChildViewId": null,
  "ModelFieldId": "38ad9a03-ce95-4448-86b6-b2b71084bd65",
  "ViewId": "809ccac3-9af6-48ce-a4e7-81cdf410a1e9",
  "breakAfter": null,
  "canOrderBy": null,
  "canUpdate": null,
  "class": "is-6",
  "deletedAt": null,
  "descriptionColumn": null,
  "filters": null,
  "findType": null,
  "format": null,
  "helperTextLabelKey": null,
  "id": "8399dbe7-f00e-4e1d-989f-eeea03d9b272",
  "include": null,
  "labelKey": "position",
  "mask": null,
  "order": "7",
  "placeholder": null,
  "required": null,
  "valueColumn": null
}