{
  "ChildViewId": null,
  "ModelFieldId": "922dcecc-588a-4674-8c12-2234065d4ab0",
  "ViewId": "809ccac3-9af6-48ce-a4e7-81cdf410a1e9",
  "breakAfter": null,
  "canOrderBy": null,
  "canUpdate": null,
  "class": "is-6",
  "deletedAt": null,
  "descriptionColumn": null,
  "filters": null,
  "findType": null,
  "format": null,
  "helperTextLabelKey": null,
  "id": "ccec3536-c29a-4f6c-b9d4-f0f4cebb0b9d",
  "include": null,
  "labelKey": "slug",
  "mask": null,
  "order": "4",
  "placeholder": null,
  "required": null,
  "valueColumn": null
}