{
  "ChildViewId": null,
  "ModelFieldId": "c331abf3-4834-4bdb-b73a-c51ad27861c8",
  "ViewId": "c86e60da-9a65-4e9f-84f4-9ca21296ed02",
  "breakAfter": false,
  "canOrderBy": false,
  "canUpdate": true,
  "class": "is-6",
  "deletedAt": null,
  "descriptionColumn": null,
  "filters": null,
  "findType": null,
  "format": null,
  "helperTextLabelKey": "",
  "id": "224fc17f-0967-4ac6-ae8b-b887728d8b84",
  "include": null,
  "labelKey": "originRecordId",
  "mask": null,
  "order": "999",
  "placeholder": null,
  "required": false,
  "valueColumn": null
}