{
  "ChildViewId": null,
  "ModelFieldId": "5c0ab300-c4ad-45e7-a73c-447afeea2463",
  "ViewId": "c86e60da-9a65-4e9f-84f4-9ca21296ed02",
  "breakAfter": false,
  "canOrderBy": false,
  "canUpdate": true,
  "class": "is-6",
  "deletedAt": null,
  "descriptionColumn": null,
  "filters": null,
  "findType": null,
  "format": null,
  "helperTextLabelKey": "",
  "id": "679aafb8-accc-4825-ad54-d66cdba53747",
  "include": null,
  "labelKey": "type",
  "mask": null,
  "order": "999",
  "placeholder": null,
  "required": false,
  "valueColumn": null
}