{
  "ChildViewId": null,
  "ModelFieldId": "c2c250c1-5ab0-42ff-87da-ea0f3e3b441f",
  "ViewId": "6c95481c-97a8-40cf-8cb8-00b85607207d",
  "breakAfter": false,
  "canOrderBy": false,
  "canUpdate": true,
  "class": "is-6",
  "deletedAt": null,
  "descriptionColumn": null,
  "filters": null,
  "findType": null,
  "format": null,
  "helperTextLabelKey": null,
  "id": "77f173db-1cb0-4364-be81-38dba4e70736",
  "include": null,
  "labelKey": "TargetUserId",
  "mask": null,
  "order": "999",
  "placeholder": null,
  "required": false,
  "valueColumn": null
}