{
  "ChildViewId": null,
  "ModelFieldId": "b2c3855c-4687-4f92-bc99-a562bd2ae773",
  "ViewId": "6c95481c-97a8-40cf-8cb8-00b85607207d",
  "breakAfter": false,
  "canOrderBy": false,
  "canUpdate": true,
  "class": "is-6",
  "deletedAt": null,
  "descriptionColumn": null,
  "filters": null,
  "findType": null,
  "format": null,
  "helperTextLabelKey": null,
  "id": "c7fa8400-2b51-46e0-bce2-d7edd7df0bdb",
  "include": null,
  "labelKey": "read",
  "mask": null,
  "order": "999",
  "placeholder": null,
  "required": false,
  "valueColumn": null
}