{
  "ChildViewId": null,
  "ModelFieldId": "c2c250c1-5ab0-42ff-87da-ea0f3e3b441f",
  "ViewId": "213f70bb-5ee1-4ce5-9810-45199efe85ed",
  "breakAfter": false,
  "canOrderBy": false,
  "canUpdate": true,
  "class": "is-6",
  "deletedAt": null,
  "descriptionColumn": null,
  "filters": null,
  "findType": null,
  "format": null,
  "helperTextLabelKey": null,
  "id": "d01c5039-7ea8-4785-a6a0-8bdd5428959b",
  "include": null,
  "labelKey": "TargetUserId",
  "mask": null,
  "order": "999",
  "placeholder": null,
  "required": false,
  "valueColumn": null
}