{
  "ModelId": "748142ba-0e35-4bb9-aeb4-04c616c33131",
  "TargetModelFieldId": null,
  "default": null,
  "deletedAt": null,
  "id": "358ceede-e488-4ca4-8399-29c39369b87a",
  "length": null,
  "modelFieldType": null,
  "name": "CreatedByUserId",
  "selectOptions": null,
  "targetModel": "User",
  "targetModelAlias": "CreatedByUser",
  "type": "belongsTo"
}