{
  "ViewId": "6460f9f3-0c77-4f38-8eba-e39cb5668e64",
  "class": "is-link",
  "deletedAt": null,
  "id": "b29c3f5c-bef1-42b8-ba75-73650a62ac7a",
  "labelKey": "edit",
  "order": "1",
  "params": null,
  "position": null,
  "slug": "/view_permission_form/:id:",
  "type": "navigation"
}