{
  "ChildViewId": null,
  "ModelFieldId": "b5220029-5ee0-4200-acaf-0bee1a06512d",
  "ViewId": "62590233-9f6e-4e61-8ead-56b01f6f095f",
  "breakAfter": false,
  "canOrderBy": false,
  "canUpdate": false,
  "class": "is-2",
  "deletedAt": null,
  "descriptionColumn": null,
  "filters": null,
  "findType": null,
  "format": null,
  "helperTextLabelKey": "",
  "id": "6ec19e54-3770-4124-9004-d12b02445ce3",
  "include": null,
  "labelKey": "OrganizationId",
  "mask": null,
  "order": "0",
  "placeholder": null,
  "required": false,
  "valueColumn": null
}