{
  "ChildViewId": null,
  "ModelFieldId": "b976099b-7ad1-4e42-977e-27b5c72e57c7",
  "ViewId": "7ef822ad-1760-4d40-b4af-63d79613e0a2",
  "breakAfter": false,
  "canOrderBy": false,
  "canUpdate": false,
  "class": "is-6",
  "deletedAt": null,
  "descriptionColumn": null,
  "filters": null,
  "findType": null,
  "format": null,
  "helperTextLabelKey": "",
  "id": "937767ea-c049-405c-ab9b-18d38d0d7656",
  "include": null,
  "labelKey": "UserId",
  "mask": null,
  "order": "1",
  "placeholder": null,
  "required": false,
  "valueColumn": null
}