{
  "ChildViewId": null,
  "ModelFieldId": "661fe871-bf94-42bc-b317-044291e12a81",
  "ViewId": "144bfc5a-d03b-4ec7-aecd-4650c9f7de2a",
  "breakAfter": null,
  "canOrderBy": null,
  "canUpdate": false,
  "class": "is-2",
  "deletedAt": null,
  "descriptionColumn": null,
  "filters": null,
  "findType": null,
  "format": null,
  "helperTextLabelKey": null,
  "id": "1e1f6eb5-d987-4c35-b7cd-76ca70a8f516",
  "include": null,
  "labelKey": "createdAt",
  "mask": null,
  "order": "8",
  "placeholder": null,
  "required": null,
  "valueColumn": null
}