{
  "ChildViewId": null,
  "ModelFieldId": "102720cc-aa16-4d11-8314-fba96e2d3fda",
  "ViewId": "84c403ef-e7b3-42d5-bce4-e6ad0d07f8ce",
  "breakAfter": false,
  "canOrderBy": false,
  "canUpdate": false,
  "class": null,
  "deletedAt": null,
  "descriptionColumn": null,
  "filters": null,
  "findType": null,
  "format": null,
  "helperTextLabelKey": "",
  "id": "35abf1b5-a566-4f73-8e3d-d5699d7abbb9",
  "include": null,
  "labelKey": "user",
  "mask": null,
  "order": "5",
  "placeholder": null,
  "required": false,
  "valueColumn": null
}