{
  "ChildViewId": null,
  "ModelFieldId": "6128d434-ee25-4a92-8420-f9c8173e0d7d",
  "ViewId": "84c403ef-e7b3-42d5-bce4-e6ad0d07f8ce",
  "breakAfter": false,
  "canOrderBy": false,
  "canUpdate": false,
  "class": "is-2",
  "deletedAt": null,
  "descriptionColumn": null,
  "filters": null,
  "findType": null,
  "format": null,
  "helperTextLabelKey": "",
  "id": "442c905f-c069-4fb5-b3ec-ccf3a96b5371",
  "include": null,
  "labelKey": "function",
  "mask": null,
  "order": "0",
  "placeholder": null,
  "required": false,
  "valueColumn": null
}