{
  "ChildViewId": null,
  "ModelFieldId": "102720cc-aa16-4d11-8314-fba96e2d3fda",
  "ViewId": "144bfc5a-d03b-4ec7-aecd-4650c9f7de2a",
  "breakAfter": null,
  "canOrderBy": null,
  "canUpdate": null,
  "class": "is-2",
  "deletedAt": null,
  "descriptionColumn": null,
  "filters": null,
  "findType": null,
  "format": null,
  "helperTextLabelKey": null,
  "id": "79c7e34b-e3ba-4fe6-a5b6-aa9ff3f95fc3",
  "include": null,
  "labelKey": "User",
  "mask": null,
  "order": "0",
  "placeholder": null,
  "required": null,
  "valueColumn": null
}