{
  "ChildViewId": null,
  "ModelFieldId": "2dc02bf6-7345-46f5-b432-90dee358ac0f",
  "ViewId": "84c403ef-e7b3-42d5-bce4-e6ad0d07f8ce",
  "breakAfter": false,
  "canOrderBy": false,
  "canUpdate": false,
  "class": "is-2",
  "deletedAt": null,
  "descriptionColumn": null,
  "filters": null,
  "findType": null,
  "format": null,
  "helperTextLabelKey": "",
  "id": "a31bd2e8-43b2-432a-a955-ff04b8e496d2",
  "include": null,
  "labelKey": "path",
  "mask": null,
  "order": "2",
  "placeholder": null,
  "required": false,
  "valueColumn": null
}