{
  "ChildViewId": null,
  "ModelFieldId": "476c9c0a-fab6-4924-9500-f2fcef81d153",
  "ViewId": "84c403ef-e7b3-42d5-bce4-e6ad0d07f8ce",
  "breakAfter": false,
  "canOrderBy": false,
  "canUpdate": false,
  "class": "is-2",
  "deletedAt": null,
  "descriptionColumn": null,
  "filters": null,
  "findType": null,
  "format": null,
  "helperTextLabelKey": "",
  "id": "af1895b6-fe02-4c0a-abbb-eab9ebf61b4f",
  "include": null,
  "labelKey": "method",
  "mask": null,
  "order": "1",
  "placeholder": null,
  "required": false,
  "valueColumn": null
}