{
  "ModelId": "fc30b20c-aeb5-4790-a694-87b874cbaf98",
  "TargetModelFieldId": null,
  "default": null,
  "deletedAt": null,
  "id": "93873817-e63f-4232-bad6-5ca49d138e40",
  "length": null,
  "modelFieldType": null,
  "name": "ProjectUsers",
  "selectOptions": null,
  "targetModel": "ProjectUser",
  "targetModelAlias": "ProjectUsers",
  "type": "hasMany"
}