{
  "ModelId": "fc30b20c-aeb5-4790-a694-87b874cbaf98",
  "TargetModelFieldId": null,
  "default": null,
  "deletedAt": null,
  "id": "e5a6b61e-4690-4777-964a-64bc4ea8a4a3",
  "length": null,
  "modelFieldType": null,
  "name": "DefaultOrganizationId",
  "selectOptions": null,
  "targetModel": "Organization",
  "targetModelAlias": "DefaultOrganization",
  "type": "belongsTo"
}