{
  "ModelId": "fc30b20c-aeb5-4790-a694-87b874cbaf98",
  "TargetModelFieldId": null,
  "default": null,
  "deletedAt": null,
  "id": "fdb86edc-d81a-450d-8c09-726cb55aae66",
  "length": 255,
  "modelFieldType": "DataTypes.STRING",
  "name": "email",
  "selectOptions": null,
  "targetModel": null,
  "targetModelAlias": null,
  "type": "string"
}