{
  "ModelId": "37556920-9519-4a41-b170-ab856a1c9149",
  "TargetModelFieldId": null,
  "default": null,
  "deletedAt": null,
  "id": "28616d8f-f679-4582-8317-29cd2f1c8236",
  "length": null,
  "modelFieldType": "DataTypes.DATE",
  "name": "createdAt",
  "selectOptions": null,
  "targetModel": null,
  "targetModelAlias": null,
  "type": "datetime"
}