{
  "ModelId": "37556920-9519-4a41-b170-ab856a1c9149",
  "TargetModelFieldId": null,
  "default": null,
  "deletedAt": null,
  "id": "3ee8bf39-8dfe-4093-b2d6-9b7dfb828633",
  "length": 255,
  "modelFieldType": "DataTypes.STRING",
  "name": "link",
  "selectOptions": null,
  "targetModel": null,
  "targetModelAlias": null,
  "type": "string"
}