{
  "ModelId": "37556920-9519-4a41-b170-ab856a1c9149",
  "TargetModelFieldId": null,
  "default": null,
  "deletedAt": null,
  "id": "5c0ab300-c4ad-45e7-a73c-447afeea2463",
  "length": 255,
  "modelFieldType": "DataTypes.STRING",
  "name": "type",
  "selectOptions": null,
  "targetModel": null,
  "targetModelAlias": null,
  "type": "string"
}