{
  "ModelId": "6e106217-3530-4118-bd6f-da78033bf682",
  "TargetModelFieldId": null,
  "default": null,
  "deletedAt": null,
  "id": "0be10162-0c52-4a91-ae4a-1c8b38bee931",
  "length": 255,
  "modelFieldType": "DataTypes.STRING",
  "name": "label",
  "selectOptions": null,
  "targetModel": null,
  "targetModelAlias": null,
  "type": "string"
}