{
  "ChildViewId": null,
  "ModelFieldId": "6c655868-6385-415c-935e-dad1998daa28",
  "ViewId": "8934a4e8-58f9-44ca-85ac-97843f634929",
  "breakAfter": false,
  "canOrderBy": false,
  "canUpdate": true,
  "class": "is-6",
  "deletedAt": null,
  "descriptionColumn": null,
  "filters": null,
  "findType": "",
  "format": null,
  "helperTextLabelKey": "",
  "id": "20714302-c78b-4050-a6e3-f3825180eee4",
  "include": null,
  "labelKey": "canOrderBy",
  "mask": null,
  "order": "4",
  "placeholder": null,
  "required": false,
  "valueColumn": null
}