{
  "ChildViewId": null,
  "ModelFieldId": "eb096869-c1c5-4325-8712-a81a41159f18",
  "ViewId": "8934a4e8-58f9-44ca-85ac-97843f634929",
  "breakAfter": false,
  "canOrderBy": false,
  "canUpdate": true,
  "class": "is-6",
  "deletedAt": null,
  "descriptionColumn": null,
  "filters": null,
  "findType": "",
  "format": null,
  "helperTextLabelKey": "",
  "id": "436ef12d-275b-4460-a4dc-6aeec2e02439",
  "include": null,
  "labelKey": "class",
  "mask": null,
  "order": "5",
  "placeholder": null,
  "required": false,
  "valueColumn": null
}