{
  "ChildViewId": null,
  "ModelFieldId": "089d21ce-17f8-4a08-a957-fb6c6d15fe41",
  "ViewId": "8934a4e8-58f9-44ca-85ac-97843f634929",
  "breakAfter": false,
  "canOrderBy": false,
  "canUpdate": true,
  "class": "is-2",
  "deletedAt": null,
  "descriptionColumn": null,
  "filters": null,
  "findType": "",
  "format": null,
  "helperTextLabelKey": "",
  "id": "457142a1-cf6a-4d30-9f8c-37bc014625e6",
  "include": null,
  "labelKey": "mask",
  "mask": null,
  "order": "9",
  "placeholder": null,
  "required": false,
  "valueColumn": null
}