{
  "ChildViewId": null,
  "ModelFieldId": "e43d299a-d9a9-4c42-b459-2a21f6584060",
  "ViewId": "8934a4e8-58f9-44ca-85ac-97843f634929",
  "breakAfter": false,
  "canOrderBy": false,
  "canUpdate": true,
  "class": "is-6",
  "deletedAt": null,
  "descriptionColumn": null,
  "filters": null,
  "findType": null,
  "format": null,
  "helperTextLabelKey": "",
  "id": "466982e6-f383-449a-9614-81745a412fc1",
  "include": null,
  "labelKey": "helperTextLabelKey",
  "mask": null,
  "order": "15",
  "placeholder": null,
  "required": false,
  "valueColumn": null
}