{
  "ChildViewId": null,
  "ModelFieldId": "52ed187d-a25e-45e6-8cb3-2304d7521e78",
  "ViewId": "8934a4e8-58f9-44ca-85ac-97843f634929",
  "breakAfter": false,
  "canOrderBy": false,
  "canUpdate": true,
  "class": "is-6",
  "deletedAt": null,
  "descriptionColumn": null,
  "filters": null,
  "findType": "",
  "format": null,
  "helperTextLabelKey": "",
  "id": "aeca1623-b5b2-4962-9f5a-f2598372e6a0",
  "include": null,
  "labelKey": "required",
  "mask": null,
  "order": "2",
  "placeholder": null,
  "required": false,
  "valueColumn": null
}