{
  "ChildViewId": null,
  "ModelFieldId": "8d996cbc-1bbb-4799-b1b3-78b90114f7d4",
  "ViewId": "8934a4e8-58f9-44ca-85ac-97843f634929",
  "breakAfter": false,
  "canOrderBy": false,
  "canUpdate": true,
  "class": "is-6",
  "deletedAt": null,
  "descriptionColumn": "key",
  "filters": null,
  "findType": null,
  "format": null,
  "helperTextLabelKey": "",
  "id": "af1fe8e8-cb97-44f6-a51c-4cac08f45ad7",
  "include": null,
  "labelKey": "ChildViewId",
  "mask": null,
  "order": "14",
  "placeholder": null,
  "required": false,
  "valueColumn": null
}