{
  "ChildViewId": null,
  "ModelFieldId": "abdc775c-916c-487b-a4ed-85693ff8eff0",
  "ViewId": "8934a4e8-58f9-44ca-85ac-97843f634929",
  "breakAfter": false,
  "canOrderBy": false,
  "canUpdate": true,
  "class": "is-2",
  "deletedAt": null,
  "descriptionColumn": null,
  "filters": null,
  "findType": "",
  "format": null,
  "helperTextLabelKey": "",
  "id": "ce8b1838-4b25-44a1-8f1a-5519fbc2e1e8",
  "include": null,
  "labelKey": "placeholder",
  "mask": null,
  "order": "8",
  "placeholder": null,
  "required": false,
  "valueColumn": null
}