{
  "MenuSectionId": null,
  "ModelId": "a1a83748-1c06-4a99-ba70-31c5eaca9013",
  "class": null,
  "deletedAt": null,
  "filters": null,
  "id": "c11f6c46-5ddc-4715-a3b6-710e40227977",
  "include": null,
  "key": "form-user_session_emulate",
  "labelKey": "UserSessionEmulate",
  "showOnMenu": false,
  "slug": "/user_session_emulate_form",
  "type": "FormView"
}