{
  "ViewId": "7bdbc5e5-4f29-4f0a-879e-bef0cbe96616",
  "class": null,
  "deletedAt": null,
  "id": "bb98fe71-cb2f-485e-8f1a-f38aa81335f3",
  "labelKey": "edit",
  "order": "1",
  "params": null,
  "position": "top right",
  "slug": "/model_field_permission_form",
  "type": "navigation"
}