{
  "ViewId": "000537b4-bdb9-4e74-ad14-c7d00bf2e375",
  "class": "is-primary",
  "deletedAt": null,
  "id": "d66b1f93-a4a9-481e-868b-85b8e35090fc",
  "labelKey": "create",
  "order": "1",
  "params": null,
  "position": "top right",
  "slug": "/model_field_permission_form",
  "type": "navigation"
}