{
  "ChildViewId": null,
  "ModelFieldId": "53cf81c8-8953-4f1e-9b29-b31624b36a18",
  "ViewId": "e7565785-4b86-4e3c-8bc2-6a628dabbdb3",
  "breakAfter": null,
  "canOrderBy": null,
  "canUpdate": null,
  "class": "is-2",
  "deletedAt": null,
  "descriptionColumn": null,
  "filters": null,
  "findType": null,
  "format": null,
  "helperTextLabelKey": null,
  "id": "50464426-d079-4f86-bcd4-b8ec93172621",
  "include": null,
  "labelKey": "reference",
  "mask": null,
  "order": "1",
  "placeholder": null,
  "required": null,
  "valueColumn": null
}