{
  "ChildViewId": null,
  "ModelFieldId": "057ac17a-af86-4ce3-8e5f-62ebc2f9d2e1",
  "ViewId": "d7f2ee21-1673-43ac-b3b8-de0d51aecaff",
  "breakAfter": false,
  "canOrderBy": false,
  "canUpdate": false,
  "class": "is-2",
  "deletedAt": null,
  "descriptionColumn": null,
  "filters": null,
  "findType": null,
  "format": null,
  "helperTextLabelKey": "",
  "id": "55cf5ad3-5690-48bf-8f8f-0efe04cf9fe9",
  "include": null,
  "labelKey": "createdAt",
  "mask": null,
  "order": "5",
  "placeholder": null,
  "required": false,
  "valueColumn": null
}