{
  "ChildViewId": null,
  "ModelFieldId": "81e0d858-e827-49f9-963c-8a4fdb27328a",
  "ViewId": "d7f2ee21-1673-43ac-b3b8-de0d51aecaff",
  "breakAfter": false,
  "canOrderBy": false,
  "canUpdate": false,
  "class": "is-2",
  "deletedAt": null,
  "descriptionColumn": null,
  "filters": null,
  "findType": null,
  "format": null,
  "helperTextLabelKey": "",
  "id": "da5d5b2b-720a-4612-be97-d6b0250a6ba0",
  "include": null,
  "labelKey": "updatedAt",
  "mask": null,
  "order": "6",
  "placeholder": null,
  "required": false,
  "valueColumn": null
}