{
  "ModelId": "72c405ec-6078-4753-bf41-c6b774131ca8",
  "TargetModelFieldId": null,
  "default": null,
  "deletedAt": null,
  "id": "24c279f1-ee6d-441f-96d3-0027a930c69f",
  "length": 255,
  "modelFieldType": "DataTypes.STRING",
  "name": "targetModel",
  "selectOptions": null,
  "targetModel": null,
  "targetModelAlias": null,
  "type": "string"
}