{
  "ModelId": "72c405ec-6078-4753-bf41-c6b774131ca8",
  "TargetModelFieldId": null,
  "default": null,
  "deletedAt": null,
  "id": "a18efb23-2169-43e9-85e4-af33afe6e4a1",
  "length": 255,
  "modelFieldType": "DataTypes.STRING",
  "name": "targetModelAlias",
  "selectOptions": null,
  "targetModel": null,
  "targetModelAlias": null,
  "type": "string"
}