{
  "ModelId": "72c405ec-6078-4753-bf41-c6b774131ca8",
  "TargetModelFieldId": null,
  "default": null,
  "deletedAt": null,
  "id": "d102d1b1-4042-4e79-b043-4d5e025f002d",
  "length": 10,
  "modelFieldType": "DataTypes.INTEGER",
  "name": "length",
  "selectOptions": null,
  "targetModel": null,
  "targetModelAlias": null,
  "type": "integer"
}