{
  "MenuSectionId": null,
  "ModelId": "5abcd236-670e-436f-81c7-3c3e44a5e270",
  "class": null,
  "deletedAt": null,
  "filters": null,
  "id": "d7f2ee21-1673-43ac-b3b8-de0d51aecaff",
  "include": [
    "Users"
  ],
  "key": "show-role",
  "labelKey": "Role",
  "showOnMenu": false,
  "slug": "/role_view",
  "type": "ShowView"
}