{
  "ModelId": "36c5b0a7-ec27-4b52-a748-430d35cfa999",
  "TargetModelFieldId": null,
  "default": null,
  "deletedAt": null,
  "id": "54b2254e-fff9-4ec4-ad1a-487d5f0df16a",
  "length": null,
  "modelFieldType": "DataTypes.DATE",
  "name": "createdAt",
  "selectOptions": null,
  "targetModel": null,
  "targetModelAlias": null,
  "type": "datetime"
}