{
  "ModelId": "36c5b0a7-ec27-4b52-a748-430d35cfa999",
  "TargetModelFieldId": null,
  "default": null,
  "deletedAt": null,
  "id": "5b66b62c-01da-46ba-a064-218b028cbb68",
  "length": null,
  "modelFieldType": "DataTypes.STRING",
  "name": "labelKey",
  "selectOptions": null,
  "targetModel": null,
  "targetModelAlias": null,
  "type": "string"
}