{
  "MenuSectionId": null,
  "ModelId": "0aae525b-862c-4079-8f53-150d0fb791e2",
  "class": null,
  "deletedAt": null,
  "filters": null,
  "id": "1bc387fc-8a19-456b-8513-929ae82a37b0",
  "include": null,
  "key": "list-model_validation",
  "labelKey": "ModelValidation",
  "showOnMenu": false,
  "slug": "/model_validation",
  "type": "ListView"
}