{
  "ViewId": "7ef822ad-1760-4d40-b4af-63d79613e0a2",
  "class": null,
  "deletedAt": null,
  "id": "2fe8d7f8-ce10-4e74-bb35-62a8256b3b07",
  "labelKey": "back",
  "order": "1",
  "params": null,
  "position": "top left",
  "slug": "/organization_user",
  "type": "navigation"
}