{
  "ChildViewId": null,
  "ModelFieldId": "bc468fd3-6706-4fd5-b6a5-c4cae6f6cfb5",
  "ViewId": "07ba578b-e244-43dc-be4e-c8244668a303",
  "breakAfter": false,
  "canOrderBy": false,
  "canUpdate": false,
  "class": null,
  "deletedAt": null,
  "descriptionColumn": null,
  "filters": null,
  "findType": null,
  "format": null,
  "helperTextLabelKey": "",
  "id": "c10540df-f98c-4a73-ba8d-295ff41b8352",
  "include": null,
  "labelKey": "CreatedByUserId",
  "mask": null,
  "order": "5",
  "placeholder": "Selecione",
  "required": false,
  "valueColumn": null
}