{
  "ChildViewId": null,
  "ModelFieldId": "a8c27708-945a-4095-86b8-74930141e4db",
  "ViewId": "a4eff7c5-394a-4d33-ad94-15ca8004f145",
  "breakAfter": false,
  "canOrderBy": false,
  "canUpdate": false,
  "class": "is-2",
  "deletedAt": null,
  "descriptionColumn": null,
  "filters": null,
  "findType": null,
  "format": null,
  "helperTextLabelKey": "",
  "id": "feeab050-7e13-4372-a3fb-df208a4bba15",
  "include": null,
  "labelKey": "createdAt",
  "mask": null,
  "order": "8",
  "placeholder": null,
  "required": false,
  "valueColumn": null
}