{
  "ChildViewId": null,
  "ModelFieldId": "f6f2c905-7b70-4646-80a0-662c56d4b636",
  "ViewId": "788935e0-e9a6-49b1-ab5c-522d3e3dd9aa",
  "breakAfter": true,
  "canOrderBy": false,
  "canUpdate": false,
  "class": "is-2",
  "deletedAt": null,
  "descriptionColumn": null,
  "filters": null,
  "findType": null,
  "format": null,
  "helperTextLabelKey": "",
  "id": "9a23d865-990f-4d37-bb20-f35ca03d9f03",
  "include": null,
  "labelKey": "ModelFields",
  "mask": null,
  "order": "1",
  "placeholder": null,
  "required": false,
  "valueColumn": null
}