{
  "ChildViewId": null,
  "ModelFieldId": "4453d424-c58e-48b2-9ff6-846f1709d556",
  "ViewId": "0c9d6688-1f88-48f2-860e-080bc28bc1b6",
  "breakAfter": false,
  "canOrderBy": false,
  "canUpdate": false,
  "class": "is-2",
  "deletedAt": null,
  "descriptionColumn": null,
  "filters": null,
  "findType": null,
  "format": null,
  "helperTextLabelKey": "",
  "id": "d811ed4c-7928-4baa-8839-dd59ad7f3f35",
  "include": null,
  "labelKey": "ModelValidations",
  "mask": null,
  "order": "3",
  "placeholder": null,
  "required": false,
  "valueColumn": null
}