{
  "id": "32f55b41-5dff-4f28-88c5-afa7b7f9dcf3",
  "deletedAt": null,
  "ModelFieldId": "47a7dd6a-5700-41e8-b517-b66f5cbeffe5",
  "ModelId": "5a7fa022-b6ec-461a-a08e-7aa3a9f57cae",
  "RoleId": "37b79ec8-56d2-4e67-892a-e6ad3b79a21a"
}