{
  "id": "542a8134-4df4-42b6-9613-2f39abc790a0",
  "deletedAt": null,
  "ModelFieldId": "39a510cd-4953-4dbd-9b1e-c11fadd4da1e",
  "ModelId": "72c405ec-6078-4753-bf41-c6b774131ca8",
  "RoleId": "37b79ec8-56d2-4e67-892a-e6ad3b79a21a"
}