{
  "id": "8e768caf-a298-4fe7-b8ab-fc2d95fa1d82",
  "deletedAt": null,
  "ModelFieldId": "6ba92465-8f87-42f1-b59b-f5995a471481",
  "ModelId": "5a7fa022-b6ec-461a-a08e-7aa3a9f57cae",
  "RoleId": "37b79ec8-56d2-4e67-892a-e6ad3b79a21a"
}