{
  "id": "91e0eacb-d225-479a-a2e7-4e380b5450a3",
  "deletedAt": null,
  "ModelFieldId": "057030e0-8f48-482d-99cf-069f16e1a899",
  "ModelId": "29de1456-e5c8-4086-b05e-68e581fe3734",
  "RoleId": "37b79ec8-56d2-4e67-892a-e6ad3b79a21a"
}