{
  "id": "af05f170-2e59-4128-88a8-f794d62354d6",
  "deletedAt": null,
  "ModelFieldId": "5e3ff6b5-d363-4dd3-a3a3-1c9cf6a820e0",
  "ModelId": "5a7fa022-b6ec-461a-a08e-7aa3a9f57cae",
  "RoleId": "37b79ec8-56d2-4e67-892a-e6ad3b79a21a"
}