{
  "id": "da275832-a8b4-4d21-b684-dcd58b7bbb7c",
  "deletedAt": null,
  "ModelFieldId": "62291c19-be26-477e-a894-74bbce264d1a",
  "ModelId": "18c7a0a0-444b-4a48-b75b-8c7b735abc70",
  "RoleId": "37b79ec8-56d2-4e67-892a-e6ad3b79a21a"
}