{
  "id": "db14d663-6543-4afc-bfc8-d3a04a51c795",
  "deletedAt": null,
  "ModelFieldId": "9752e8de-70bb-4ae9-ba9b-ad77c81bb82b",
  "ModelId": "72c405ec-6078-4753-bf41-c6b774131ca8",
  "RoleId": "37b79ec8-56d2-4e67-892a-e6ad3b79a21a"
}