{
  "ModelId": "d0ff17b6-1af4-407f-87ab-fa49709aca0e",
  "TargetModelFieldId": null,
  "default": null,
  "deletedAt": null,
  "id": "102720cc-aa16-4d11-8314-fba96e2d3fda",
  "length": null,
  "modelFieldType": "",
  "name": "CreatedByUserId",
  "selectOptions": null,
  "targetModel": "User",
  "targetModelAlias": "CreatedByUser",
  "type": "belongsTo"
}