{
  "ViewId": "e1514e4c-9493-48a8-99fc-bac07d019187",
  "class": "is-primary",
  "deletedAt": null,
  "id": "d6ab9347-940b-4e6c-a2de-c8b11f5c5ed8",
  "labelKey": "save",
  "order": "1",
  "params": null,
  "position": "form end",
  "slug": "/view_permission",
  "type": "submit"
}