{
  "ChildViewId": null,
  "ModelFieldId": "ff509dfe-7498-4dff-a817-d7b6f0cca79f",
  "ViewId": "6460f9f3-0c77-4f38-8eba-e39cb5668e64",
  "breakAfter": false,
  "canOrderBy": false,
  "canUpdate": false,
  "class": "is-2",
  "deletedAt": null,
  "descriptionColumn": "key",
  "filters": null,
  "findType": null,
  "format": null,
  "helperTextLabelKey": "",
  "id": "8518186c-572b-42cf-99c4-612ee2259b98",
  "include": null,
  "labelKey": "ViewId",
  "mask": null,
  "order": "1",
  "placeholder": null,
  "required": false,
  "valueColumn": null
}