{
  "ChildViewId": "82dd0852-c5f6-4276-ac3a-e7d69f141cc1",
  "ModelFieldId": "7d131087-a605-4442-a46a-1283fd7206eb",
  "ViewId": "637e72f8-9426-4796-bfa1-b864faec1aed",
  "breakAfter": false,
  "canOrderBy": false,
  "canUpdate": false,
  "class": "is-full",
  "deletedAt": null,
  "descriptionColumn": null,
  "filters": null,
  "findType": null,
  "format": null,
  "helperTextLabelKey": "",
  "id": "3be63c05-bbd0-44ad-9298-f1fabfc64e4c",
  "include": null,
  "labelKey": "ViewActions",
  "mask": null,
  "order": "998",
  "placeholder": null,
  "required": false,
  "valueColumn": null
}