{
  "ChildViewId": null,
  "ModelFieldId": "da88ec8e-a5a7-4f0a-844b-abfc61ab42d4",
  "ViewId": "637e72f8-9426-4796-bfa1-b864faec1aed",
  "breakAfter": true,
  "canOrderBy": false,
  "canUpdate": false,
  "class": "is-6",
  "deletedAt": null,
  "descriptionColumn": null,
  "filters": null,
  "findType": null,
  "format": null,
  "helperTextLabelKey": "",
  "id": "73731dbe-3b94-472f-92ef-4424d4662c04",
  "include": null,
  "labelKey": "showOnMenu",
  "mask": null,
  "order": "6",
  "placeholder": null,
  "required": false,
  "valueColumn": null
}