{
  "ChildViewId": null,
  "ModelFieldId": "0a27ff3e-451b-4682-acfe-c19f7b70cc45",
  "ViewId": "d16fb811-afe8-4d56-a007-274a9bd21445",
  "breakAfter": false,
  "canOrderBy": false,
  "canUpdate": true,
  "class": "is-6",
  "deletedAt": "2022-06-16T00:52:06.940Z",
  "descriptionColumn": null,
  "filters": null,
  "findType": null,
  "format": null,
  "helperTextLabelKey": null,
  "id": "91d461c8-b392-4e9c-92e0-73366f28d022",
  "include": null,
  "labelKey": "backendFilters",
  "mask": null,
  "order": "999",
  "placeholder": null,
  "required": false,
  "valueColumn": null
}