{
  "ModelId": "12c32798-4211-4740-8189-9f878d8e6b9b",
  "TargetModelFieldId": null,
  "default": null,
  "deletedAt": null,
  "id": "b976099b-7ad1-4e42-977e-27b5c72e57c7",
  "length": null,
  "modelFieldType": null,
  "name": "UserId",
  "selectOptions": null,
  "targetModel": "User",
  "targetModelAlias": "User",
  "type": "belongsTo"
}