{
  "ModelId": "87d8172b-58c9-468a-9450-923eed45806d",
  "TargetModelFieldId": null,
  "default": null,
  "deletedAt": null,
  "id": "a5d6c422-043b-44ed-99b4-ef17b2a3602a",
  "length": 255,
  "modelFieldType": "DataTypes.STRING",
  "name": "class",
  "selectOptions": null,
  "targetModel": null,
  "targetModelAlias": null,
  "type": "string"
}