{
  "MenuSectionId": null,
  "ModelId": "fc30b20c-aeb5-4790-a694-87b874cbaf98",
  "class": null,
  "deletedAt": null,
  "filters": null,
  "id": "a4eff7c5-394a-4d33-ad94-15ca8004f145",
  "include": [
    "Role",
    "Language",
    "DefaultOrganization"
  ],
  "key": "show-user",
  "labelKey": "User",
  "showOnMenu": false,
  "slug": "/user_view",
  "type": "ShowView"
}