{
  "MenuSectionId": "8dcd077b-b723-4b33-8c80-48702c9afdf4",
  "ModelId": "405cf410-c096-4b15-b7a8-97a0ed9bae72",
  "class": null,
  "deletedAt": null,
  "filters": null,
  "id": "ef50194f-2c63-4a20-8819-f75d6346aa49",
  "include": null,
  "key": "ViewPermission",
  "labelKey": "ViewPermission",
  "showOnMenu": true,
  "slug": "/view_permission",
  "type": "ViewPermissionView"
}